2.5 Example: Creating a template for “tidy” data collection | Improving the Reproducibility of Experimental Data Recording and Pre-Processing
…
# Convert to a fully tidy format
growth_curve <- growth_curve %>% 
  pivot_longer(-sampling_date_time, 
               names_to = "experimental_group", 
               values_to = "optical_density")

# How the data look after this transformation
growth_curve

## # A tibble: 70 × 3
##    sampling_date_time  experimental_group optical_density
##    <dttm>              <chr>                        <dbl>
##  1 2019-07-09 12:00:00 aerated1                     0.02 
##  2 2019-07-09 12:00:00 aerated3                     0.02 
##  3 2019-07-09 12:00:00 low_oxygen1                  0.02 
##  4 2019-07-09 12:00:00 low_oxygen2                  0.02 
##  5 2019-07-09 12:00:00 low_oxygen3                  0.02 
##  6 2019-07-09 16:05:00 aerated1                     0.027
##  7 2019-07-09 16:05:00 aerated3                     0.02 
##  8 2019-07-09 16:05:00 low_oxygen1                  0.022
##  9 2019-07-09 16:05:00 low_oxygen2                  0.022
## 10 2019-07-09 16:05:00 low_oxygen3                  0.027
## # … with 60 more rows
…
