3.6 Example: Converting from complex to ‘tidy’ data formats | Improving the Reproducibility of Experimental Data Recording and Pre-Processing
…
library(biobroom)
library(Biobase)
library(edgeR)

data(hammer)

class(hammer)

## [1] "ExpressionSet"
## attr(,"package")
## [1] "Biobase"

tidy(hammer)

## # A tibble: 236,128 x 3
##    gene               sample    value
##    <chr>              <chr>     <int>
##  1 ENSRNOG00000000001 SRX020102     2
##  2 ENSRNOG00000000007 SRX020102     4
##  3 ENSRNOG00000000008 SRX020102     0
##  4 ENSRNOG00000000009 SRX020102     0
##  5 ENSRNOG00000000010 SRX020102    19
##  6 ENSRNOG00000000012 SRX020102     7
##  7 ENSRNOG00000000014 SRX020102     0
##  8 ENSRNOG00000000017 SRX020102     4
##  9 ENSRNOG00000000021 SRX020102     7
## 10 ENSRNOG00000000024 SRX020102    86
## # … with 236,118 more rows
…
y <- DGEList(counts=hammer.counts,group=hammer.treatment)
y <- calcNormFactors(y)
y <- estimateCommonDisp(y)
y <- estimateTagwiseDisp(y)
et <- exactTest(y)

class(et)

## [1] "DGEExact"
## attr(,"package")
## [1] "edgeR"

tidy(et)

## # A tibble: 29,516 x 4
##    gene               estimate  logCPM    p.value
##    <chr>                 <dbl>   <dbl>      <dbl>
##  1 ENSRNOG00000000001   2.65    1.49   0.00000131
##  2 ENSRNOG00000000007  -0.409  -0.226  1         
##  3 ENSRNOG00000000008   2.22   -0.407  0.129     
##  4 ENSRNOG00000000009   0      -1.31   1         
##  5 ENSRNOG00000000010   0.0331  1.79   1         
##  6 ENSRNOG00000000012  -3.39    0.0794 0.00375   
##  7 ENSRNOG00000000014   3.65   -0.854  0.252     
##  8 ENSRNOG00000000017   2.42    1.11   0.0000638 
##  9 ENSRNOG00000000021  -2.02    0.211  0.0373    
## 10 ENSRNOG00000000024   0.133   3.97   0.508     
## # … with 29,506 more rows
…
These data are structured and stored in such a way that they have some of the
characteristics that can make data difficult to work with the data using
tidyverse tools. For example, they store gene identifiers in the rownames,
rather than in a separate column where they can be easily accessed when using
tidyverse functions. Also, there are phenotype / meta data that are stored
in other parts of the ExpressionSet data but that may be interesting to
explore in conjunction with these assay data, including the experimental
group of each sample (control versus animals in which chronic neuropathic
pain was induced, in these example data).

The tidy function from the biobroom package extracts these data and
restructures them into a ‘tidy’ format, ready to use easily with tidyverse
tools.

## # A tibble: 236,128 x 3
##    gene               sample    value
##    <chr>              <chr>     <int>
##  1 ENSRNOG00000000001 SRX020102     2
##  2 ENSRNOG00000000007 SRX020102     4
##  3 ENSRNOG00000000008 SRX020102     0
##  4 ENSRNOG00000000009 SRX020102     0
##  5 ENSRNOG00000000010 SRX020102    19
##  6 ENSRNOG00000000012 SRX020102     7
##  7 ENSRNOG00000000014 SRX020102     0
##  8 ENSRNOG00000000017 SRX020102     4
##  9 ENSRNOG00000000021 SRX020102     7
## 10 ENSRNOG00000000024 SRX020102    86
## # … with 236,118 more rows
…
You can also incorporate data that are stored in the phenoData slot of
the ExpressionSet object by specifying addPheno = TRUE:

## # A tibble: 236,128 x 8
##    gene         sample   sample.id num.tech.reps protocol strain    Time   value
##    <chr>        <chr>    <fct>             <dbl> <fct>    <fct>     <fct>  <int>
##  1 ENSRNOG0000… SRX0201… SRX020102             1 control  Sprague … 2 mon…     2
##  2 ENSRNOG0000… SRX0201… SRX020102             1 control  Sprague … 2 mon…     4
##  3 ENSRNOG0000… SRX0201… SRX020102             1 control  Sprague … 2 mon…     0
##  4 ENSRNOG0000… SRX0201… SRX020102             1 control  Sprague … 2 mon…     0
##  5 ENSRNOG0000… SRX0201… SRX020102             1 control  Sprague … 2 mon…    19
##  6 ENSRNOG0000… SRX0201… SRX020102             1 control  Sprague … 2 mon…     7
##  7 ENSRNOG0000… SRX0201… SRX020102             1 control  Sprague … 2 mon…     0
##  8 ENSRNOG0000… SRX0201… SRX020102             1 control  Sprague … 2 mon…     4
##  9 ENSRNOG0000… SRX0201… SRX020102             1 control  Sprague … 2 mon…     7
## 10 ENSRNOG0000… SRX0201… SRX020102             1 control  Sprague … 2 mon…    86
## # … with 236,118 more rows
…
## [1] "control" "L5 SNL"

There is also a space in this object class where information about each
gene can be stored, if desired.

Two biobroom methods are defined for the DGEExact object class, glance
and tidy. The tidy method extracts the results from the differential
experssion analysis, but moves these results into a dataframe where the
gene names are given their own column, rather than being stored in the
hard-to-access rownames:

## # A tibble: 29,516 x 4
##    gene               estimate  logCPM    p.value
##    <chr>                 <dbl>   <dbl>      <dbl>
##  1 ENSRNOG00000000001   2.65    1.49   0.00000131
##  2 ENSRNOG00000000007  -0.409  -0.226  1         
##  3 ENSRNOG00000000008   2.22   -0.407  0.129     
##  4 ENSRNOG00000000009   0      -1.31   1         
##  5 ENSRNOG00000000010   0.0331  1.79   1         
##  6 ENSRNOG00000000012  -3.39    0.0794 0.00375   
##  7 ENSRNOG00000000014   3.65   -0.854  0.252     
##  8 ENSRNOG00000000017   2.42    1.11   0.0000638 
##  9 ENSRNOG00000000021  -2.02    0.211  0.0373    
## 10 ENSRNOG00000000024   0.133   3.97   0.508     
## # … with 29,506 more rows

Now that the data are in this tidy format, tools from the tidyverse can
be easily applied. For example, you could use functions from the dplyr
package to see the genes for which the differential expression analysis
resulted in both a very low p-value and a large difference in expression
across the experimental groups:

## # A tibble: 803 x 4
##    gene               estimate logCPM   p.value
##    <chr>                 <dbl>  <dbl>     <dbl>
##  1 ENSRNOG00000013496     6.39   3.41 5.95e- 46
##  2 ENSRNOG00000001338     6.01   2.25 1.37e- 22
##  3 ENSRNOG00000020136     5.17   3.89 3.19e- 52
##  4 ENSRNOG00000018808     4.78   6.46 1.75e-169
##  5 ENSRNOG00000006151     4.43   2.99 2.39e- 30
##  6 ENSRNOG00000009768     4.40   7.83 5.57e-293
##  7 ENSRNOG00000030927    -4.29   2.45 6.32e- 23
##  8 ENSRNOG00000001476     4.25   3.76 1.45e- 47
##  9 ENSRNOG00000004805     4.05   6.64 2.51e-185
## 10 ENSRNOG00000014327     3.85   4.51 5.39e- 63
## # … with 793 more rows
…
